﻿object={
	name="savanna_tree_generator_1_0"
	clamp_to_water_level=no
	render_under_water=no
	generated_content=yes
	layer="semidynamic"
	pdxmesh="tree_savanna_001_mesh"
	count=5
	transform="5618.789551 0.000000 2327.946777 0.000000 0.486550 0.000000 0.873653 0.194950 0.194950 0.194950
5620.657715 0.000000 2315.895508 0.000000 0.287650 0.000000 0.957736 0.302290 0.302290 0.302290
5641.641113 0.000000 2312.562744 0.000000 0.527296 0.000000 0.849681 0.190367 0.190367 0.190367
5635.505371 0.000000 2302.801270 0.000000 0.266541 0.000000 0.963824 0.188907 0.188907 0.188907
5649.939453 0.000000 2301.170654 0.000000 0.051376 0.000000 0.998679 0.192635 0.192635 0.192635
"}
object={
	name="savanna_tree_generator_1_1"
	clamp_to_water_level=no
	render_under_water=no
	generated_content=yes
	layer="semidynamic"
	pdxmesh="tree_savanna_002_mesh"
	count=5
	transform="5613.516602 0.000000 2330.592773 0.000000 0.992608 0.000000 0.121362 0.199195 0.199195 0.199195
5623.638184 0.000000 2331.602783 0.000000 0.805814 0.000000 0.592169 0.194937 0.194937 0.194937
5629.512207 0.000000 2315.885498 0.000000 0.994658 0.000000 0.103230 0.199019 0.199019 0.199019
5663.758301 0.000000 2289.534668 0.000000 0.982259 0.000000 0.187530 0.203087 0.203087 0.203087
5658.074219 0.000000 2289.891357 0.000000 0.966491 0.000000 0.256702 0.197570 0.197570 0.197570
"}
object={
	name="savanna_tree_generator_1_2"
	clamp_to_water_level=no
	render_under_water=no
	generated_content=yes
	layer="semidynamic"
	pdxmesh="tree_savanna_003_mesh"
	count=4
	transform="5619.402344 0.000000 2313.342285 0.000000 0.749928 0.000000 -0.661519 0.349767 0.349767 0.349767
5620.706543 0.000000 2315.690430 0.000000 0.860725 0.000000 -0.509071 0.440803 0.440803 0.440803
5618.318359 0.000000 2316.065186 0.000000 0.922206 0.000000 -0.386700 0.301487 0.301487 0.301487
5615.663086 0.000000 2325.871338 0.000000 0.901015 0.000000 -0.433788 0.232669 0.232669 0.232669
"}
object={
	name="savanna_tree_generator_1_3"
	clamp_to_water_level=no
	render_under_water=no
	generated_content=yes
	layer="semidynamic"
	pdxmesh="tree_savanna_004_mesh"
	count=3
	transform="5622.816895 0.000000 2317.110107 0.000000 0.566810 0.000000 -0.823849 0.218982 0.218982 0.218982
5612.062988 0.000000 2324.848389 0.000000 0.210188 0.000000 -0.977661 0.223252 0.223252 0.223252
5649.722656 0.000000 2311.552246 0.000000 0.438277 0.000000 -0.898840 0.246187 0.246187 0.246187
"}
